*** Life<Cell> 38x10 ***

Generation = 0, Population = 31.
---0-0----
--0-------
----0-----
----------
----------
-------0--
----------
----------
----------
----------
------0---
-----0----
0----0----
----------
----------
----------
---------0
--0-------
----------
-0--------
-0---0----
----------
0---------
--00------
------0-0-
0---0-----
-0--------
-------0-0
---------0
----------
----------
--------0-
-0--------
--------0-
----------
--------0-
----------
-0---0----

*** Life<Cell> 21x71 ***

Generation = 0, Population = 49.
-------------------------0--0---------------------------------------0--
------------------0-0--------------------------------------------------
----------------------0---------0-----------------------0-------0------
-------------0-------------------------------------0-------------------
----------------------0------------0-----------------------------------
-----------------------------------------------------------------------
------------------------------------------0---------------0--0---------
--0------------------------------0-------------------------------------
--------0------------------------------------------------------------0-
--------------------------0-----0--------------------------------------
----------------------------------------0-------------0-------------0--
---------------------------0-------0-------------------0---------0-----
-------0--------------------0--------------0---------------------------
----------------------------0-----------------------------------------0
---0---------------------------------------0--------------0------------
-----------------------------------------------------------------------
---------------0-----------------------------------0------0------------
---------------------------------------0--------0----------------------
--------------------------------------------0--------------------------
-0------------0-------------0--------------0---------------------------
----------------------------0---------------------------------------0--

Generation = 74, Population = 133.
....................................................................**.
....................................**..............................**.
...................................*...................................
.......................................................................
........................**........*..*...........................**....
........................**...........*.................**........**....
..................***.............*...*................*..*............
.................**.*..............*...................*.*.**.-........
................*..*...............*...*..............**.*...*.........
................*.*....**..........*...*................**...*.........
.................*....*.*..............*.........*.......*.............
........................*.......................*...***.**.**..........
.................................**...*..........******...*............
..................................*.**............****....*............
........**........................**...................*.*.............
........**.......*.***..................................*..............
................*...*.*...............***..............................
.................*.**..*.............*...*...........................*.
.....................*.*.................*....**....................*.*
......................*..............**.**...*.*................**...**
-............................-.........*......*.................**.....

*** Life<Cell> 103x1 ***

Generation = 0, Population = 45.
0
0
-
0
0
-
-
-
-
-
-
0
-
0
-
-
-
0
0
0
-
-
0
-
-
-
-
0
-
-
0
-
-
-
0
0
-
-
-
0
0
-
-
0
-
-
0
-
0
0
-
0
0
0
-
-
0
0
0
-
-
-
0
0
-
-
-
-
-
-
-
0
0
0
-
0
0
-
-
0
0
0
-
-
0
-
-
-
-
0
-
0
-
0
-
0
0
0
-
-
-
0
0

Generation = 7, Population = 23.
.
.
-
.
-
.
*
-
.
-
-
-
-
-
.
*
.
.
-
.
*
*
*
-
*
-
-
0
.
.
.
*
0
-
.
.
.
1
*
1
1
*
*
.
.
-
-
-
.
.
-
-
-
.
.
.
.
-
.
.
1
-
.
-
.
-
1
-
.
.
.
.
-
-
-
.
-
-
-
.
-
.
*
*
.
-
.
.
-
1
0
.
1
0
-
.
.
.
.
-
-
-
.

Generation = 14, Population = 2.
.
.
-
.
-
.
.
-
.
-
-
-
-
-
.
.
.
.
-
.
.
.
.
-
.
.
-
1
.
.
.
.
.
.
.
.
.
.
.
.
.
.
.
.
.
-
-
-
.
.
-
-
-
.
.
.
.
-
.
.
-
1
.
-
.
-
-
-
.
.
.
.
-
-
-
.
-
-
-
.
-
.
.
.
.
-
.
.
.
.
.
.
.
-
.
.
.
.
.
-
-
-
.

*** Life<Cell> 3x18 ***

Generation = 0, Population = 47.
-00000000000000000
0000000000000-00-0
-0000-0000000--000

Generation = 187, Population = 8.
.......-.-........
...**.....**......
...**.....**......

Generation = 374, Population = 8.
.......-.-........
...**.....**......
...**.....**......

Generation = 561, Population = 8.
.......-.-........
...**.....**......
...**.....**......

*** Life<Cell> 27x45 ***

Generation = 0, Population = 122.
------------0--0-----------------------0-----
-------------0--------0-0--------0--------0--
--------------0----------0-------------------
---0-------0-0--------------00-----------0--0
--0--0--0----------0-----------------0-------
0-------0---------0---0----------------------
---------0--0------------------0-------0-----
-0-0---------------------------------0--0----
-0----------------------00------0---------0--
0----0----0-0---0--------0----------------0--
---00--0-------0----------------------0-----0
--0--------------------0-0-------------------
-------0----0-0--------0---------------0---0-
0-0------------00-------------0------0------0
--0------------------------------------0-----
---0-----------0-----------------------------
---------------0----------0-----------0------
---00----0----0-----------0------------------
------------0------------0---0-------------0-
----0-----------------0--------------------0-
----0---------0--------------0-------------0-
-0--0-----0----0--------000--------------000-
--------------0-------------0----------0-0---
-0------------------0--------------------0---
---------0-------0----------0---------------0
---------00----------0-----0---------------0-
---------------0------------0----00-----0----

Generation = 76, Population = 192.
..-...............................-...**.**..
..........................-......*....**.**..
........***.......................**..*..**..
........***.............**.....**.**...**....
.......*.*.*............**.....*...*.........
......***........................****........
......**.*..*.................*.**.*.........
.....**.....*................****............
.....**...*.*.................*...*..........
....**....*.*.........*.......**.**..........
....**...............*.....................**
....**..**............*.*......*.*.........**
....**..***.............***.....*............
..*...*......**.........**.*....*............
..*...*......**..........***.................
....*.....................***................
..*...**............***....**................
..*...***.......***.***....***...............
....**..........*.....*......................
........*.*.....*...**.......................
....**...**...*..*...*.......................
...*..*...*..**...***........................
...*......*.....*....................**......
....*.*...**..*.**.**...............*..*.....
......*........*.....*..............*..*.....
..............*.*....*..............*.*......
............**...****.......................-

Generation = 152, Population = 129.
..-.....***................**.........*......
.......*...*...............**..........**....
.......**.**.........................*.**....
...................................*.*.......
...................................*.**......
.........................................*...
.....................................**.**...
......................................*.**...
.......................................*.....
.............................................
...........................................**
............**.**......*...................**
...............*.......*.....................
...........*..........*.*....................
..........*...**.....*.*.....................
...........*....*....***.........*...........
...........*....**......*.......*.*..........
............***.**.*...**.**.....**..........
...........*..**.**.*.*...*.*................
............**.****.*..***...................
..........*.....*..*.........................
........****....*......*.***.*...............
.......*****..............*.*................
......*.....**....*.*..*.*...................
.......**...*......*.........................
.........*.**................................
.............................................

Generation = 228, Population = 86.
..-.....***..................**..............
.......*...*.................**..............
.......**.**.................................
.............................................
.............................................
.............................................
.............................................
.............................................
.............................................
...............................**..***.......
...............................*..*..*.......
...................*............***.**.......
..................***...........*..**........
.................**.**............***........
.................**.............*....*.......
..................***............***.**......
...................***............**.**......
.....................*.......................
..................*.*........................
..................*.*........................
.........**........*.........................
....**..*..*.......................*.........
....**...**........................*.........
...................................*.........
.........**..................................
.........**...........**.....................
......................**.....................

Generation = 304, Population = 57.
..-.....***..................................
.......*...*.................................
.......**.**.........**......................
.....................**.........**...........
....................*........*.*.**..........
....................*.*...*.**..*............
....................*.*....*.................
.............................................
.............................................
.............................................
.............................................
.............................................
.............................................
...............*.............................
...............*.............................
...............*.............................
.............................................
.............................................
.............................................
....................*..*.....................
.........**.........****.....................
....**..*..*........*..*...........*.........
....**...**........................*.........
...................................*.........
.........**..................................
.........**..................................
.............................................

*** Life<Cell> 43x187 ***

Generation = 0, Population = 54.
-----------------------------------------------------------------------------------------------0-------------------------------------------------------------------------------------------
---------------------------------------------------------------------------------------------------------------------------------------------------------------------0---------------------
------------------------------------------------------------------------------------------------------0------------------------------------------------------------------------------------
-------------------------------------------------0-----------------------------------------------------------------------------------------------------------------------------------------
-------------------------------------------------------------------------------------------------------------------------------------------------------------------------------------------
-------------------------------------------------------------------------------------------------------------------------------------------------------------------------------------------
---------------------------------------------------------------------0---------------------------------------------------------------------------------------------------------------------
-------------------------------------------------------------------------------------------------------------------------------------------------------------------------------------------
-------------------------------------------------------------------------------------------------------------------------------------------------------------------------------------------
---------------------------------------------------------------------------------------------------------------------------------0---------------------------------------------------------
-------------------------------------------------------------------------------------------------------------------------------------------------------------------------------------------
----------------------------------0-------------------------------------------------------------------------------------------------------------------------------------0------------------
------------------------------------------------------------------0-------------------------------------------------------------------------------------------------------------0----------
-----------------------------------------------------------------------------------------------------------------0-------------------------------------------------------------------------
-------------------------------------------------------------------------------------------------------------------------------------------------------------------0--------------------0--
-----------------0-------------0-----------------------------------------------------------------------------------------------------0-----------------------------------------------------
-------------------------------------------------------------------------------------------------------------------0--------------0----------------------0---------------------------------
---------------------------------------------------------------------------------------------------------------------------0---------------------------------------------------------------
--------------------------------------------------------------------------------------------0----------------------------------------------------------------------------------------------
----------------------------------------0--------------------------------------------------------------------------------------------------------------------------------------------------
------------------------------------------------0------------------------------------------------------------------------------------------------------------------------------------------
---------------------------------------------------------0------------------------------------------------------------------------------------0--------------------------------------------
-------------------------------------------------------------------------------------------------------------------------------------------------------------------------------------------
-------------------------------------------------------------------------------------------------------------------------------------------------------------------------------------------
---------------------------------------------------------------------------------------------------------0---------------------------------------------------------------------------------
-------------------------------------------------------------------------------------------------------------------------------------------0-----------0-----------------------------------
-0---------------------------------------------------------------------0-------------------------------------------------------------------------------------------------------------------
--------------------------------------------------------------------------------------------------------------------------------------------------0----------------0-----------------------
-------------------------------------------0-----------------------------------------------------------------------------------------------------------------------------------------------
-------------------------------------------------------------------0-----------------------------------------------------------------------------------------------------------------------
--------------------------------------------------------------------------0----------------------------------------------------------------------------------------------------------------
----------------------------0--------------------------------------------------------------------------------------------------------------------------------------------------------------
-------------------------------------------------------------------------------------------------------------------------------------------------------------------------------------------
---------------0------------------------------------------0-----------------------------------0-----0--------------------------------------------------------------------------------------
-------------------------------------------------------------------------------------------------------------------------------------------------------------------------------------------
-------------------------------------------------------------------------------------------------------------------------------------------------------------------------------------------
-------------------------------------------------------------------------------------------------------------------------------------------------------------0----------------0-0--0-------
-------------------------------------------------------------------------------------------------------------0---------0---------------------------------------------------------------0---
-------------------------------------------------------------------------------------------------------------------------------------------------------------------------------------------
--------------0------------------------------------------------------------------------------------------------------------------------------------------0---------------------------------
---------------------------------------------------------------------------------------------0---------------------------------------------------------------------------------------------
-------------------------------------------------------------------------------------------------------------------------------------------------------------------------------------------
------------------------------------------------0------------------------------------------------------0-------------------------0-------------------------------------------0-------------

Generation = 111, Population = 824.
................-............-.-.........................*.*............................**...............................*..................................**................-.....1......
.....***....................................-............*..*....-..*..-................**..............................*.*.......................*.*.......**.....***..............-...***
.....***..................-.............................*...*......*.*......................**..........................**............*...........*..*..***........*..*....................
.....*...**.*............................................**........*.**.....................**.......................................**...........*.*......*........*..*...................
....**..**...*.................................-.**......***..........*..............................**.............................*..*.................*..*....**.....*..................
....*.*..****......-.***.........................**.................*.*...-..........................**........**..................**.*...................*...............*................
...*..*....*.........*.*....................................**...****.*..........................................*..................*.*....................*...***.....**..*...............
...*.*...............*.*....................................**...**.*............................*..............**...................*...........................*......*.*................
...*.*....**......*****.........................................................................*.*...........*...**..............................................*...**...................
..........**....*..***....**...................................**...............................*.*...............**................................................*..*...................
...............*.........*.*...................................**...*............................*...........*.....*.........**.....*......**......................**.*....**..............
.............***...*......*......................................**.**.......................................*..............*..............**......................*..*....***.............
............*.**.**...............................................*.*........................................*..............*.**...*...............................*...*...**..............
............*.*..................*.*.........................-.....**.**.......................*.............*...*...........*.**.**...............................*..**...................
............*....................*.**.................**...........**..**........**...........*.*......***...*..................*..*.....................*.........*.......................
................................*..*.*.*..............**.-............*..........**...........*.*............*.........*.*...................**.........**........*........................
......**...*...............**..***.*.**.................*...................................-..*...........**.**......*.........*....*...**..**.........*..***...***.......................
.....**..***.**............**....*...*..............****...........................................-.......*.*...........................****.*...**.....***.**...*..**...................-
**....******..*.............*..*....*..........***.*....*................................................***......................*.**...*****.....*......****.....***.....................
**....**..**...................*...............***.....*...................**............................**.............*.*.......*......******.*.*.........*......**...............*......
........*..*................**..*.*.................*..*...................**............................................*.......**.....*..*..**.................**................*.*.....
.........*.**................*.**.............*......*........................................................................**.**..**..**....***..............*..................*.*.....
...........*..................................*..........................................**................**....*...***......**..*.....***.....**..............*..*................*......
.-...........................**.**..................*....................................**.............-..**...*...**..*.......***...***......***.............*.....*.....................
...................................................***..................................................*..*....*..**.*..........***.....**....................**..**.....................-
.....................**...........................*...*.........................................*.*......**.*...**.................*..........................*...**..*...........**.......
.....................**....*.....*.................***............................................*......***.........**........................................*..**..*..................*-
........*..................*.....*..................*..................*......................*...*........*.........*...*......................................*..*..*................***.
........*..*...............*.....*.....................................*.....................*..................*.....**..............................*..........*.*.*.....................
.......*.***...........................................................*.....................*.*...............***....................................*..*....*...***.................****.
......***...*................***..............................................................*****...........*.*.*......................................*....*...**.*.......*......***....
......*.**.....................................................................................**..*.........***.***..................................*..*.........*.*...**...*............
.....**.....................................***............................-.-................**....*.........*.*.*..........***.........-............**............*..**.*....*...........
......*......................................................................................**.*...*..........***............................**................**.....*.....**............
..........**.................................................................................**..**.*...........*..........*.....*..........****................**....**....*..**..........
..........*...............................................**.................................*.....*.......................*.....*.........*..........................*......****..........
..........................................................**..........**.....................*...**........................*.....*........**........................***......**..*.**......
.....................................................................*..*.....................*..*...................**....................*.*............................**.............**
.........-.................**...........................*.............**.......................*....................*..*.....***............**...................-......*....**.....*****.*
...........................**..........................*.*..........................................................*..*.....................**........................*.....**...*.*.*...*
.....-.................................................*.*.......................**....-.............................**.......................*.........................*.........*...*.*.*
**...............................-...............-......*........................**..............**..........................-.-......................................-..........**...**.*.
**...........................-....--.......................-.....................................**......-....................-....-................................-.............****.....

Generation = 222, Population = 648.
............**..-......................................***...........*.....***................................................................................................-.....-....*.
............**..............................-.........*..*..........*.*....*.*..............................**......................................................................1....*.
......................................................**............***...*..*..............**..............**...........................................................................*.
.....................................................................*.*.*..*...............**.........................*..*.......................................**.......................
.....**........................................-.**...................*...**..........................................*....*....................*.................**.......................
.....**..........................*...............**................................**..............................**.......*..........**......***.........................................
................................*.*........................**.....................*..*...........................**.*....*.**.........*..*....**.**........................................
...................**..........*..*.......*.**.............***.....................**............*..............*.*....*...............*.*...***.***.......................................
...................**..........*..*.......*...*............*..*.................................*.*.............*...****.......*.**.....*.....**.**....................................**..
...............................**.............**...............*................................*.*.............*.*.*.*......*.*.**............***....................................**...
...............................***...*.*...*..*..................*...............................*...............***.....****.*...*.............*..................................**.**.**
..**............................**...*..*..***............*...*****.....................................................*..***.....................................................****.***
.*..*..................................**..................*....***....................................................*....*....................................................******...*
.*.*....................**............***.............*..........*.*......**...................*.......................****.............**.......................................**...*****
..*.....................**............*..............*..*.........*.......**..................*.*.....................*....*...........*.*....................**......................*.**.
.....................................................*..*.......................*.............*.*.......................**..*............**..................*..*................*...**.*..
....................*.................................*.**.**..................*.*..........-..*.......................**..............****...*...............**.........**.......***......
...................**...................................**.***....................*................-....................*..*..........*.*.*..*..*........................**...............-
..................**....................................*...*.....................*......................................**.***......*..*....*..**......................*..................
.................***....................................*...*.................*....*........................................***...*..*............*....................*.............**....
.................**...**.................................*.*.................*....*................................................*.*.......**...*..................**.....**.......**....
...........***...**..*..*.................................*....................***..........................*................**...***....*..*....*..................*..*.**..**.**.........
......................**......................**.........................................**...**...........*.*......**....**...*...**.*..*..*...*............*.......*.....*..*............
.-.............*.***..........................**.........................................**..*..*.........*..*.....*..*...***..*.***...*.**..***.............*.......*.....*...*...........
...........*.....***..........................................................................**...........**.......**....*...*..........***.................*.............*...............
..............**..**.......................................................................................................*...**.*...**.**.............................*........*.*.......
.............**............................................................................................................*...*..*...**..*.............................*.*......**........
...*.**.**......................***...............**............................................................................*......***..............................*.**...............
..*...***.*.......................................**..................***...............................................................*..............................*.*.................
.*...**.....**................*...............*..............*..........................................................................................................**..**.............
.*..*..**...**................*..............*.*............*.*..............................................**.............................................................**.............
..*......*.***................*...............**............*.*.............................................*..*.....................................................................**....
..........*.**...............................................*.............-.-...............................*.*............................**......................................*.*....
...........**.............................................*...................................................*.............................**...................**..................*.....
.........................................................*.*....................................................................................................*..*.......................
...................................................*.**.*........................................................................................................**........................
...................................................*.***..............**...................................................................................................**.**...........
.......................................................*.............*..*..................................................................................................*...*...........
.........-.................**....................*.*..................**.........................................................................................-..........***............
...........................**....................***........................................................................................................................***............
.....-............................................*..............................**....-...................................................................................................
**...............................-...............................................**...................................................................................-....................
**...........................-....--.......................-.............................................-..........................................................-......................

Generation = 333, Population = 498.
............**..-.........................................**.................**.......**....................................*.................................................-.....1......
............**............................................*.*................*.........**...................................*.......................................................-...***
...........................................................**.................*.......***...............................**......................**.........................................
....................................................................................******....................................*................*..*...............**.......................
.....**..............................................................................***....................***.......**......**................**................**.......................
.....**........................................*............................................................*.**.....*.*...*.*.**..........................................................
.....................................................................*..........................................*...*......*.*..*.........**...............................................
...................**.................................................*............................*..........**.....**......**.*........*..*..............................................
...................**........................*...................*.....*........................*..*..........*................**........*.*...............................................
............................................**.*.................*...............................*........................................*................................................
.............................................*..*................*.....*...................................................................................................................
..**..........................................**.*................*......*........................................................................***......................................
.*..*...........**.**........................******................*......*.................***.....................................................*.........................**...........
.*.*...........*.....*..**.................**........................*.....*................**.......................................*............**.........................**.**.........
..*.............**.**...**.............**.............................*...*....**...........**.......................................*..........*............................**............
...........................................***........................*...**.....*............***....................................*.......................................**...*........
.............................................***.**...**..............**......*..*..........-.***..............................................**...........................*..............
...............................................*****..***..............***....*.**.............*...-...................................***..**.............**......*.......**...***.......-
................................................**.*....................*...*..................................................................**...........*.....*.*......**..**.*........
..........**........................................*...................****.........................................................*.....................***....*..*.....***.......**....
..........**........*...............................*................................................................................*..........*...........*......**......****......**....
....................*...............................*.......................................................*........................*............**.......*..................**..*........
....................*.........................**.........................................**...**...........*.*.........*............................*............................**........
.-............................................**.........................................**..*..*.........*..*........***.....................*...***.........................***..........
........**......***...***.....................................................................**...........**........**.**...................*.*..............................***..........
.......*..*.........................................................................................................**...**...**..............*...............**...........................
........**..........*............*...................................................................................**.**...*..*...............................*..........................
....................*............*.....................................*.....................................................*.*.........................*.***...*......................**.
....................*............*.....................................*......................................................*......***.................*....*.........................**.
.......................................................**..............*......................................................................................*............................
.............................***.......................**....................................................**...............**...........................*...........**..................
...........................................*.....**.........................................................*..*.............*..*..........................*.....*....*..*.................
...........................................*.....*.*.......................-.-...............................*.*.............*..............................*..........**..................
...........................................*......*...........................................................*...............***............................*..*..........................
.............................................................................................................................................................***...........................
.................................................................................................................................................................**........................
..............................................................*.......**........................................................................................*..*.......................
........................................................*.....*......*..*........................................................................................*.*.......................
...........................**...........................*.....*.......**......................................................................................*...*.......***..............
...........................**...........................*....................................................................................................*.*.........*.*.**............
.................................................................................**....-.....................................................................*..*.......**.*........*......
.................................-...............................................**...........................................................................**.........**...*....*.*.....
.............................-....--.....................................................................-................................................................****......**.....

Generation = 444, Population = 316.
............**..-.......................................**...................**................................**.............................................................-.....-....*.
............**..........................................**...................**...............................*.*...................................................................1....*.
.......................................................................**.....................................**................................**.......................................*.
......................................................................*..*.....................................................................*..*...............**.......................
.....**.......................................................**.......*.*......................................................................**................**.......................
.....**......................................................*..*.......*..................................................................................................................
.............................................................*..*.........................................................................**...............................................
...................**.........................................**.........................................................................*..*..............................................
...................**....................................................................................................................*.*...............................................
..........................................................................................................................................*................................................
...........................................................................................................................................................................................
..**........................................................**..............................**..................................**...........................................**............
.*..*.......................................................**.............................*..*.................................**...........................................**............
.*.*....................**.................................................................*.*.............................................................................................
..*.....................**..................................................................*..............................................................................................
...................................................................................................................................*.......................................................
......................................................**....................................-..................................**...*......................................................
.....................................................*..*..........................................-................*.........*.....*.....................................................-
......................................................**.......................**..............................*....*........*..*..**......................................................
..........**...................................................................*.*.............................*....**.......*...*.*..............................***................**....
..........**...................................*................................*.............................*..*..*.*......*.....*.................................................**....
...................***........................*.*..............................................................**...**........*.......................................*....................
..............................................**.........................................**...**...............**..............*.**...................................*....................
.-...............*.....*.................................................................**..*..*..........**.................*...............*.......................*....................
........**.......*.....*........................................*.............................**...........**................*.*.............*.*...........................................
.......*..*......*.....*.......................................*.*...........................................................*.*..............*............................................
........**.....................................................*.*............................................................*.........**.................................................
...................***..........***.............................*...............................................*.........**...........*..*.............................................**.
......................................................................***......................................**...*.*..*..*...........*.*.............................................**.
..............................*...............................................................................**....**....*.*............*.................................................
..............................*................................................................................**.....*....*............................................**.................
..............................*..................**.............................................................*.....*..**.............................................**.................
..........................................***....*.*.......................-.-.............................................*...............................................................
..................................................*....................................................................*...**..............................................................
.....................................................................................................................*.*.*............**........................**.........................
.....................................................................................................................................*..*.......................**.........................
......................................................................**..............................................................**...................................................
.............................................................***.....*..*..........................................................................................**......................
...........................**..........................***............**........................................**.................................................**......................
...........................**..................................................................................*..*........................................................................
.................................................................................**....-........................**..................................................................*......
.................................-...............................................**......................................................................................**........*.*.....
.............................-....--.....................................................................-...............................................................**.........**.....

Generation = 555, Population = 299.
............**..-.......................................**...................**................................**.............................................................-.....1......
............**..........................................**...................**...............................*.*...................................................................-...***
.......................................................................**.....................................**................................**.........................................
......................................................................*..*.....................................................................*..*...............**.......................
.....**.......................................................**.......*.*......................................................................**................**.......................
.....**......................................................*..*.......*.........................................................*........................................................
.............................................................*..*.................................................................*.......**...............................................
...................**.........................................**................................................*.................*......*..*..............................................
...................**..........................................................................................*.*.......................*.*...............................................
...............................................................................................................*..*...........***...***...*................................................
................................................................................................................**.........................................................................
..**........................................................**..............................**...........................***.................................................**............
.*..*.......................................................**.............................*..*........................................***...................................**............
.*.*....................**.................................................................*.*....................*........................................................................
..*.....................**..................................................................*.....................*........................................................................
..................................................................................................................*........................................................................
......................................................**....................................-..............................................................................................
.....................................................*..*..........................................-.............................**.......................................................-
......................................................**.......................**................................................*.................................*.......................
..........**...................................................................*.*..................................................................**.............*.................**....
..........**........*..........................*................................*..................................................................*..*............*.................**....
....................*.........................*.*............................................................................*..................******.....................................
....................*.........................**.........................................**...**.............................****..............*.....................***...................
.-.......................................................................................**..*..*.............................*....**..........*....***....................................
........**......***...***.......................................*.............................**.................*.................*............*......*...................................
.......*..*....................................................*.*.............................................**.*.................................*...*..................................
........**..........*............*.............................*.*..............................................***.........................**.......*.*...................................
....................*............*..............................*......*.................................................**.................**.......***................................**.
....................*............*.....................................*................................................*..*............................................................**.
.......................................................................*.................................................*.*...............................................................
.............................***..........................................................................................*.............................................**.................
...........................................*.....**.....................................................................................................................**.................
...........................................*.....*.*.......................-.-.............................................................................................................
...........................................*......*........................................................................................................................................
......................................................................................................................................**........................**.........................
.....................................................................................................................................*..*.......................**.........................
..............................................................*.......**..............................................................**...................................................
........................................................*.....*......*..*..........................................................................................**......................
...........................**...........................*.....*.......**...........................................................................................**......................
...........................**...........................*..................................................................................................................................
.................................................................................**....-............................................................................................*......
.................................-...............................................**......................................................................................**........*.*.....
.............................-....--.....................................................................-...............................................................**.........**.....

*** Life<Cell> 16x36 ***

Generation = 0, Population = 104.
-------0-00-0----0--00---0--0-------
-----0-00-------------------0-0-----
----------00-00--0------0-------0---
-------0------000--------------0----
---------00--0-----------------0---0
-------------0--00---0--------------
-----0---0-----0-------0---0--------
----0-0----0---0--00--------0-0-----
0--0-0-------0----------0-----------
0---------000-------0---0---0------0
----0----0-----0-----00----0--00----
00--00--0-------------0-----0--0----
----0-0----0000--------0--0--00-----
----0------0----0-00-----------0----
-------0-000------------0--0--------
------------00------0-----0------0--

Generation = 90, Population = 67.
.................................-.-
.........**.........................
........*..*..............***.......
.......**.***...............*.......
........***.*.............*.*.......
..........*.**............**........
..........*.*.......................
...........*...............*........
..........................*.*.......
..........................*.*.......
.....**.............*......*........
....*..*...........**...............
.....**...........**................
**...**..........**.................
*.*....*.**.......***...............
.**....****.......***...............

Generation = 180, Population = 65.
.................................-.-
.................*..**....**........
.........*.................*..**....
........*.*..........*....*...**....
..................**.*..............
........***......*.*................
.................**.................
...**...*............*..............
..****..*...*.......................
.*.**....*.*.*..**..................
.*....*.*..*.....*..................
..*...*.*........*....**............
.............*..*....*..*...........
...............*......**............
..**................................
..**................................

Generation = 270, Population = 35.
.................................-.-
..........................**........
..........................**..**....
..............................**....
......**............................
.....*..*...........................
......*.*...........................
.......*............................
....................................
...........*....***.................
..........*.*.......................
..........*..*......................
...........**.......................
....................**..............
..**...............*.*..............
..**...............**...............

Generation = 360, Population = 35.
.................................-.-
..........................**........
..........................**..**....
..............................**....
......**............................
.....*..*...........................
......*.*...........................
.......*............................
....................................
...........*....***.................
..........*.*.......................
..........*..*......................
...........**.......................
....................**..............
..**...............*.*..............
..**...............**...............

Generation = 450, Population = 35.
.................................-.-
..........................**........
..........................**..**....
..............................**....
......**............................
.....*..*...........................
......*.*...........................
.......*............................
....................................
...........*....***.................
..........*.*.......................
..........*..*......................
...........**.......................
....................**..............
..**...............*.*..............
..**...............**...............

Generation = 540, Population = 35.
.................................-.-
..........................**........
..........................**..**....
..............................**....
......**............................
.....*..*...........................
......*.*...........................
.......*............................
....................................
...........*....***.................
..........*.*.......................
..........*..*......................
...........**.......................
....................**..............
..**...............*.*..............
..**...............**...............

Generation = 630, Population = 35.
.................................-.-
..........................**........
..........................**..**....
..............................**....
......**............................
.....*..*...........................
......*.*...........................
.......*............................
....................................
...........*....***.................
..........*.*.......................
..........*..*......................
...........**.......................
....................**..............
..**...............*.*..............
..**...............**...............

Generation = 720, Population = 35.
.................................-.-
..........................**........
..........................**..**....
..............................**....
......**............................
.....*..*...........................
......*.*...........................
.......*............................
....................................
...........*....***.................
..........*.*.......................
..........*..*......................
...........**.......................
....................**..............
..**...............*.*..............
..**...............**...............

Generation = 810, Population = 35.
.................................-.-
..........................**........
..........................**..**....
..............................**....
......**............................
.....*..*...........................
......*.*...........................
.......*............................
....................................
...........*....***.................
..........*.*.......................
..........*..*......................
...........**.......................
....................**..............
..**...............*.*..............
..**...............**...............

Generation = 900, Population = 35.
.................................-.-
..........................**........
..........................**..**....
..............................**....
......**............................
.....*..*...........................
......*.*...........................
.......*............................
....................................
...........*....***.................
..........*.*.......................
..........*..*......................
...........**.......................
....................**..............
..**...............*.*..............
..**...............**...............

Generation = 990, Population = 35.
.................................-.-
..........................**........
..........................**..**....
..............................**....
......**............................
.....*..*...........................
......*.*...........................
.......*............................
....................................
...........*....***.................
..........*.*.......................
..........*..*......................
...........**.......................
....................**..............
..**...............*.*..............
..**...............**...............

Generation = 1080, Population = 35.
.................................-.-
..........................**........
..........................**..**....
..............................**....
......**............................
.....*..*...........................
......*.*...........................
.......*............................
....................................
...........*....***.................
..........*.*.......................
..........*..*......................
...........**.......................
....................**..............
..**...............*.*..............
..**...............**...............

Generation = 1170, Population = 35.
.................................-.-
..........................**........
..........................**..**....
..............................**....
......**............................
.....*..*...........................
......*.*...........................
.......*............................
....................................
...........*....***.................
..........*.*.......................
..........*..*......................
...........**.......................
....................**..............
..**...............*.*..............
..**...............**...............

Generation = 1260, Population = 35.
.................................-.-
..........................**........
..........................**..**....
..............................**....
......**............................
.....*..*...........................
......*.*...........................
.......*............................
....................................
...........*....***.................
..........*.*.......................
..........*..*......................
...........**.......................
....................**..............
..**...............*.*..............
..**...............**...............

Generation = 1350, Population = 35.
.................................-.-
..........................**........
..........................**..**....
..............................**....
......**............................
.....*..*...........................
......*.*...........................
.......*............................
....................................
...........*....***.................
..........*.*.......................
..........*..*......................
...........**.......................
....................**..............
..**...............*.*..............
..**...............**...............

Generation = 1440, Population = 35.
.................................-.-
..........................**........
..........................**..**....
..............................**....
......**............................
.....*..*...........................
......*.*...........................
.......*............................
....................................
...........*....***.................
..........*.*.......................
..........*..*......................
...........**.......................
....................**..............
..**...............*.*..............
..**...............**...............

Generation = 1530, Population = 35.
.................................-.-
..........................**........
..........................**..**....
..............................**....
......**............................
.....*..*...........................
......*.*...........................
.......*............................
....................................
...........*....***.................
..........*.*.......................
..........*..*......................
...........**.......................
....................**..............
..**...............*.*..............
..**...............**...............

Generation = 1620, Population = 35.
.................................-.-
..........................**........
..........................**..**....
..............................**....
......**............................
.....*..*...........................
......*.*...........................
.......*............................
....................................
...........*....***.................
..........*.*.......................
..........*..*......................
...........**.......................
....................**..............
..**...............*.*..............
..**...............**...............

Generation = 1710, Population = 35.
.................................-.-
..........................**........
..........................**..**....
..............................**....
......**............................
.....*..*...........................
......*.*...........................
.......*............................
....................................
...........*....***.................
..........*.*.......................
..........*..*......................
...........**.......................
....................**..............
..**...............*.*..............
..**...............**...............

*** Life<Cell> 25x25 ***

Generation = 0, Population = 73.
---------0--0000--------0
-------------0-----------
-------0--------0--------
------0---------0-0---00-
--0------0---------0-0---
-000---------00--0-0----0
--------0----------0---00
----0-------------------0
-------0------0----0----0
---0------------------0--
--0-----------0----------
---------0------00-------
-----------0-------0-----
-----0-------------------
---0---0----------0-0----
-----------0---------0---
-----------0---------0-0-
----------0----0---------
----------0-0---0----00--
----------------0--------
----0--0----------0------
--0-----------------0----
-------------------------
----0--0-0---------------
---0------------0--------

Generation = 1, Population = 203.
--------0-0011-10------0-
-------0-0---1-00-------0
--------0----0-0100---00-
--0--0---0-----01-----110
--1---0-0-0--00-00-1---00
01110---00--01100---00--1
-0000--0-0---00--0010-011
---0-0-00-----0----------
---00-0-0----0-0--0-0-001
----0--0-----------0-0-00
-0-------0---0-000----0--
--0-----0-00--001100-----
-----0---00-0---000-0----
---00-00---0------000----
--0-000-0--0-----0-------
---0---0--010-----0--100-
-----------10--0----01--0
---------01-0-0-------00-
---------01--0--10--0110-
----0--0--0-0--0100--00--
--00-00-0-------00-00----
-0-00--0----------00-0---
--0-0--0-0----------0----
-----00---0-----0--------
--0----0-0-----0-0-------

Generation = 2, Population = 202.
---------01------0----0--
------0----0---11-0---00-
--0--0---0--01-1--10-0--0
-0100---0-------*000-0---
0---0---1--0----11---0--1
1*-*-00----01----000-1-0-
--1---01-10---1--1---01--
-0----0------01--0-0-----
--0--0--10--0-0-00-0-011-
-0--10---0------00--0----
0---0--0---00-0-1-------0
---0-0-0---1--11--11--0--
--00---0-1---00--11-10---
---1---1-0-1----00---0---
-0-------0------0-000000-
-----0---01--0-0---0---1-
---0---0-00-10--0-001-00-
--------0--010--00---0---
----0--00-*00------01*--0
--0-------1---01--1-0----
--1--11--00-0-------100--
0------1-0------0-1---0--
---01--1--------0-0------
-----110-0-0--------0----
-0-0-0--------0-0-0------

Generation = 3, Population = 309.
------0-01*----1-----01--
--0----0-----10-*01----1-
--1-------0-1*-*1-*--1---
-1*----01--000--.11---1--
10101-00*001---0-*0-0-0--
-*1*01--00--*11--1-1--0--
00----1*-*1-0-*00---0-*--
0-0---1-0-0--1*0---10--0-
-0-0-1-0*-00-01--1-101-*1
---0--00-100---01-0---000
----1001000-1-10*-000-00-
0--10---000*--**---*---00
-011000--*0-01-----0*----
-0-*0-0*----0000--000--0-
0-00-0-00--0-0--1011-1--0
-0-00-0001-1-1--0-0-010-0
--0-000-0--1-10-1011*11-0
---00--01-1---00-1--01-00
--00-001--*1--0010-1**10-
-01000000----01*10-0-00-0
00*00**-0----0000--0---0-
-00000-*-1--0--01-*00-10-
0-01*---0--0---01-100-0--
-0----------0-0----0-0---
0----1-0-0-0-0-----00----

Generation = 4, Population = 200.
--0--0-01-.0-1---00-01*--
-010-----0----1-.--0----0
---0----00-0-.0*--.00--0-
--.-0-----0-1-0-.-*00-*1-
*--1-011.1--0----.-1---0-
1.*.1*00-10-*--0-*0-01-0-
--100--.-.--1-.11--11-*--
1-----*-10----.--00-1--1-
--01----.01----0--0-1*1.-
-001-0-1-----00--010-----
0--0--1*1-1-----.--11--10
----10-----.0-..---.0---1
---------.-0--0----1.0--0
-1-.---.-00----1------0--
--11---1--010--------*--1
-------1-*-----0---------
----1------*---0-1*-.--0-
--0--00---*0--1----01*---
---1--1*00**0-1-*1--..*-0
----1--1-0100--.----0----
1-.--..-1-----1-1----001-
0-----0*--0----1*-.-----0
---*.-----0-0--------01--
0--001-000-0-0--0--------
----0-------0-----0-1----

Generation = 5, Population = 298.
--1-0--1*-.-----01101-.00
01*-00-0010---*-.0-1000--
-0-1---01-0--.1*1-.1-1-1-
0-.0--0010-0*-1-.1*---**0
.0----*-.*01-000-*0*00--1
*.*.-.1---1-*1110*1--*011
-0-----.0.10*0.-*10**0*1-
-0--00.-*---0-.--1-1--0-0
0---0100.-*0-0--01-1-**.-
-11*--0*-1--011-11*-00000
---1-0***--0101-.0---00*-
0---*1-00-0*-0..---.1----
-0--00---.---1----1-*--01
0--.---.01-10---0--0-0-0-
--**0-0*00--10------0.-0-
--000-0*-.--0-01000--1-10
--00--00-0-*1--1-**-*11-0
-0---1--1-.1-0*-0--1-*-00
-------.-1..--*-.*01...--
0----0-*--*1-0-.-0-0---00
*0.-0.*0---000-0*0---1-*-
10-0-01*-1100--**0.------
--0*.00-0-10---0----01*00
-00-1*-1-10---00-00-000--
0---1--000------00---0---

Generation = 6, Population = 278.
0-*-1-0-.-.---011*-1--*11
1*.0-1-1---0-1*-.11*11110
011*-0-1*-1-1.*.*0.*0*-*-
-1.100-1*---*0-0.-.000..-
*--1-0*-..1-----1.-.--00-
*.*.-.*00---.-**1.*10.1*-
-1--001*1.--.-.-.-1..1.-1
-100--.-*0-011.-0-0--0-1-
-00--*1-.-*1-1-0-*0*1...-
-*-*-01.0--0------.01--11
00-*1-...---*--0*1--1-1.-
----.*0---1*0-..-11**-0-1
0-11--00-.0--*0-01-1*-0-*
--0.-00.---*-0-1-0-------
00*.---.1-0-*1-0-01--*0--
-01---1.-*---11*-1-00*0--
--------0--*--0*-..1.-*--
0--00----0.*11*0-10*1*01-
00-----.--.*-0*0**-*..*--
1-----0*0-*-01-*--11000-1
.-*--..110011---.1001--*-
--010--.0**---0..-.-0-1-0
00-..1----*-------10-*.-1
-1-0-.1*-----01-0-1-----0
--00*-0-------0-1----1---

Generation = 7, Population = 302.
10*0-0--.-.0-----*1*--.*-
*..10*0*----0*.-.*-.***--
---.0--*.--0*...*-..-.0*-
0*.*-10-*0-0*11-.1*-1-.*-
*--*1-.1.*-10000**0.----1
*.**1..1-11-.1.*-.*-1.-.-
-*1-1-*.*.-0*0*1*1-..*.1-
1*11--.-*10---*--1---1---
01-10*-0*-.*0*--0*1.-***1
-.1*1--*-1-1-1--1-.-*0-**
1--**0.*.-10*011*--1--*.-
-00-.*---0-.--*.1*-..---*
---*00110.10-*101*1-*-1-.
---.01-.0-0*0-0*0--000--0
11.*-0-*-0-1.*0--1*--.-0-
---0-0-*0*-1--*.-*0--.11-
00001-00-00*-11.1*.-.1.--
1-0111----.*-*.10--.-.-*0
11010-1*01..-1.-..-....-0
*-1--01.-0.---1*-0--1--0-
.0*-0.*--1----10.*11*-0.0
1---1--*-..-00-..0.010-01
1--..--10-*0-0--10-10*.0-
-*01-.-*0-0-01--1-*----01
--11*-1-------1-*00-1-0-0

Generation = 8, Population = 250.
--*-11-1.-.--1--1*-*-1*.1
*..-1.-*0--0-*.-**-***.1-
-1-.100..01-..*.*0**-.-*0
-***-*1-.--1.*--.-*--0**-
*--.--.*..1-1-11..1.-----
*...*.**0-*0.-..1.*--.-.1
0.*-*-....11*1.*.--.***-1
-.*-00*-.-10-1.-0---1---0
---*1*--.0.*-*-0-.*.-...-
-.*.*01*0-0-------*-*--.*
--0..-...0*1.1*-.-0---*.-
-111..----1.00..*.-*.--0.
-0-*1----.--0.-1-.*1*0-0.
01-.-*-.11-.1-1.-00111---
****0--*-10-..1---.-0*-1-
----011.-.1-01..-.-0-.*-0
--1---1-0--*---.-.*-.-.-0
--1--*0-1-.*-*.*---.-.0*-
*--*---*--*.0*.-..-....01
*---11*.--*----*-1--*0--1
*1*-1.*-1*0-1---.*-*.1-.1
*-01*0-*-**-1--*.-.1--1--
*-0*.-0*--*1--00--1-1*.-1
-*1--.-.--101--0--.--0---
---**---0-0-0---*------01

Generation = 9, Population = 320.
10.--*-**-.01*01-*-*1-**-
.*.1-.-*1----**1..1..*.*0
-*-.-1-.*1*0.****1..-.-.1
-***0.--.00-**10*-.-11**-
*-1*10..***--0**..-*-0001
*..*.***1-.-.1..-*.11*1**
1..-*-....*-.-***-1***.--
1**111*0.--11-.0-101*-011
--0.-.10*-.*-.---*..-...-
-.*..1-*1-11--10-1*-.00..
---.*0***1.*.-*1.11-10.*0
0-*-*.----*.--.*.*1..0-1.
--1**---0*10-.---..-.--1.
-*-.0*0.*--**-**011*-*0--
*.**-0-*1--1*.*0-1.1-.0--
00-----.0.*11*..-.---**11
-0*010--10-*---.-..-.-*-1
10*-1*-0*0**1**.0-0.-.1.0
.1-*--1*-1*.1*.-*.-..*.--
*-1---*.0-*1-11.-*1-*-0--
*-*0-..1*.1-*0--..-*.*-**
*01*.1-.0..0*0-**0.*-0-0-
*01..-1*0-.-001110-1***0-
-*-11.1*01*1-1-1--.--100-
-0-*.1-0--1010--.0---101*

Generation = 10, Population = 253.
*-*01.-**1.1-.1--.1**1**-
.*.-1.0.*-0--..*..-***..-
0*-.--0*.*.1.....*..0.0.*
-...-.--.111..--.-.-**..0
*0-.*-....*1-1....1*-1---
*.*...**--*-.*..-*.**.*.*
-..0.0..*..-*-**.--....--
-.*-*-.-*---*1*10-1*.11-*
0--.1.--.0..-.1-0...1...1
-..***-.*1**01---*.0*-1*.
1--.*1...*.*.1.*.**-*1.*1
--*1..00-0..--**.*-**1--.
0--..-11-.*--.1-1..1*--*.
-*0.-.1..--..-*.-*-*-*---
*.**010.*1-*...-1*.*0.--1
--1-0--.-..-***.-.-00*.--
01.-*-1-*--.1-1.1..-.-.0-
*-.--.0-.-..*.**1--.-**.1
.*-*---.--..-..0*.-*.**-1
*0*0-1*.10.*-**.-**1*---1
*1.-1.***.*-.1-0..-*.*0**
.1-.*--.-..1.10..-.*1-1--
.--..--.1-.1----*---...11
-.1-*.-.1-.---1*--*0-*-1-
01-*.-11---1--10.-0-1-1**

*** Life<Cell> 50x50 ***

Generation = 0, Population = 149.
--------------------------------------0-----------
------0-----0----------0--------------------------
---------0-------0----0---------------------------
--------------------------------------------------
--------0------------------------0----------0--0--
---------------------0--------------------------00
-------------0-------------------0----------0---00
-0------------------00-------0---0---0-0---------0
---------0-----------0----------------------------
--------------------------------0-----------------
-------------------------0------------------------
--------------------------------0-0---------------
-----0------------------------------0-------------
---------------------0----------------0----0------
--------------------0--------------------------0--
-----------------0--------------0--------0--0-0--0
0-------------------0--------0----0------------0--
------------------------------0----------0--------
---------0----------------------------------------
-------------------------------0------------------
--------0------0--------------------0---------0---
---0-------0---------------0---------0------------
------------------------------0-0---0-------------
-----------0-------------0-------0----------------
----------0--0-------------------------------00---
--0-------0-------0--0----------------0-----------
-----0--0-----------------------------0-------0---
--------------0---------0-----------0----0--0-0---
------0-------------------------------------------
-------------------------------------------0-----0
---------------------------------------0----------
---0--0--------------------0---------------------0
--------------------------------------------------
------0---0-------0-------------------------------
0----0---------00----------------------------0----
-----0-------------00---------------------------0-
-----------0-------0----0---------0--0--------0---
----------0--------0--------0---------------------
---------------------------0-------------0-0------
----0-------------------------0------------0------
------0------0--------------------------------00--
---------0-----0---------------------0------------
------0-------------0-------------------------0---
---------------------0----------------------------
----------------------------------0---------------
-------------------------------------0-0----------
---------0----00----------------------------------
----------0-------------0-----------------0-------
-------------0--------------0--0-0----------------
----------0-------------0-------------------------

Generation = 200, Population = 240.
-.................................................
..................................................
............*.....................................
............*.....................................
............*.....................................
..................................................
..................................................
...***............................................
................................................-.
..................................................
..................................................
...........................**............*........
.......**...*.**...........***..........**........
.......*.*..*..*.............***.......*.***......
.......*.....*..*.............*.*......*...**.....
........*.*....***..............*...........**....
.........*......**.............***...*......*.....
...................***...........**.****..**......
..............**...***............*.**..**........
..............***..*..*...*..........*..**.....**.
..............**..*......****...**...*............
........................*...*....*...*........**..
......................**..**.*...**.**............
...................***.**.*........*....*.....*.*.
...*...............*.*....*............**.........
..***..............*.*......**........***.........
.*..*...............**.**.*.........***...........
*..*......................*...*....*.*............
.**.........**...........*.*...**.**.*............
.*..........**.............*..***.***.............
........................*.....***.................
...*.....................***......................
..***.....................*.......................
..***.............................................
..................................................
.................................................-
..................................................
........................*............*............
.......................***.*........*..*.........-
......................*............**.**..........
.............................*....**..**......**..
-.....................*.......*....*.*........**..
.........................**..**.....*.............
......................*..****.....................
..................................................
.....................*..*.*.......................
.....................**...*................*......
.......................*..*...............*.*.....
........................*.................*.*.....
...-.......................................*......

Generation = 400, Population = 85.
-.................................................
..................................................
............*.....................................
............*................**...................
............*................**...................
..................................................
..................................................
...***............................................
................................................-.
..................................................
..................................................
..................*...............................
..................*...............................
..................*...............................
..................................................
..............***...***...........................
..................................................
..***.............*...............................
..................*...............................
......*...........*...............................
......*...........................................
......*...........................................
..................................................
..***..............................*..............
....................**............*.*.............
....................**...........*..*.............
..................................**..............
............................................**....
............**..............**.....*.......*..*...
............**..............**....*.*.......**....
.................................*...*............
..................................*.*.............
...*...............................*..............
..*.*.............................................
...*..............................................
.......................................***..**...-
......................................*..***......
.......................................*.**.......
........................................*.........
..................................................
..................................................
-.................................................
..................................................
..................................................
..................................................
..................................................
..................................................
.............................................**...
.............................................**...
...-..............................................

Generation = 600, Population = 60.
-.................................................
..................................................
............*.....................................
............*................**...................
............*................**...................
..................................................
..................................................
...***............................................
................................................-.
..................................................
..................................................
..................*...............................
..................*...............................
..................*...............................
..................................................
..............***...***...........................
..................................................
..***.............*...............................
..................*...............................
......*...........*...............................
......*...........................................
......*...........................................
..................................................
..***.............................................
....................**............................
....................**............................
..................................................
............................................**....
............**.............................*..*...
............**..............................**....
..................................................
..................................................
...*..............................................
..*.*.............................................
...*..............................................
.....................................*...........-
.....................................*............
.....................................*............
..................................................
..................................................
..................................................
-.............................**..................
..............................**..................
..................................................
..................................................
..................................................
..................................................
.............................................**...
.............................................**...
...-..............................................

Generation = 800, Population = 60.
-.................................................
..................................................
............*.....................................
............*................**...................
............*................**...................
..................................................
..................................................
...***............................................
................................................-.
..................................................
..................................................
..................*...............................
..................*...............................
..................*...............................
..................................................
..............***...***...........................
..................................................
..***.............*...............................
..................*...............................
......*...........*...............................
......*...........................................
......*...........................................
..................................................
..***.............................................
....................**............................
....................**............................
..................................................
............................................**....
............**.............................*..*...
............**..............................**....
..................................................
..................................................
...*..............................................
..*.*.............................................
...*..............................................
.....................................*...........-
.....................................*............
.....................................*............
..................................................
..................................................
..................................................
-.............................**..................
..............................**..................
..................................................
..................................................
..................................................
..................................................
.............................................**...
.............................................**...
...-..............................................

Generation = 1000, Population = 60.
-.................................................
..................................................
............*.....................................
............*................**...................
............*................**...................
..................................................
..................................................
...***............................................
................................................-.
..................................................
..................................................
..................*...............................
..................*...............................
..................*...............................
..................................................
..............***...***...........................
..................................................
..***.............*...............................
..................*...............................
......*...........*...............................
......*...........................................
......*...........................................
..................................................
..***.............................................
....................**............................
....................**............................
..................................................
............................................**....
............**.............................*..*...
............**..............................**....
..................................................
..................................................
...*..............................................
..*.*.............................................
...*..............................................
.....................................*...........-
.....................................*............
.....................................*............
..................................................
..................................................
..................................................
-.............................**..................
..............................**..................
..................................................
..................................................
..................................................
..................................................
.............................................**...
.............................................**...
...-..............................................

*** Life<Cell> 7x7 ***

Generation = 0, Population = 28.
-------
-000000
-000000
-000000
-000000
-0000--
-------

Generation = 1, Population = 28.
-000000
0-1111-
01----1
01----1
01---1-
0-11--0
-0000--

*** Life<Cell> 18x16 ***

Generation = 0, Population = 78.
----------------
-000000---------
-000000---------
-0000-----------
-----00---------
-000000000------
-0000000--------
-----00000------
-000000000------
-000000000------
-00000000000----
-00000000-------
---------00-----
----------------
----------------
----------------
----------------
----------------

Generation = 12, Population = 121.
-....**-..*-.1--
.*******.-1-.*-1
*..-.....*****0.
.*.....*....11*0
*--..**..0**.-.-
*.*....*.*...1.*
.....--*.*-1*0-*
..*-..-..*..*.11
**...*1***-.1--0
*.*1.*-..*.....*
*.-.-.*--**.-.*1
*0***.*.0..*..*1
*..*...0**.*1..0
1**..*.-.***.1*-
**.-....1...----
*-...*.**.1*011-
*..--1.*-..-.---
10-11-.-*0.01---

*** Life<Cell> 15x15 ***

Generation = 0, Population = 87.
---------------
-000000--------
-000000--------
-000-----------
----000--------
-000000000-----
-00------0-----
-000000000-----
-000000000-----
-000---000-----
-00000000000---
-00000000000---
-00000000000---
---------------
---------------

Generation = 1, Population = 94.
-000000--------
0-1111-0-------
01--11-0-------
0-1-0----------
---0-1--00-----
0-1-111---0----
0110----0-0----
01-11111110----
01--111--10----
01-10-01-1-0---
01--111---1-0--
01---------10--
0-111111111-0--
-00000000000---
---------------

Generation = 2, Population = 119.
-111111--------
1--*-*010------
1*0-*--10------
10-010-000-----
--0--*-011-----
10*-***0--10---
1**-0---10-0---
1*0-***-**10---
1*00***0-*-----
1*-*1-1*-*-----
1*0---------10-
1--0---0000*10-
1--*******--10-
-11111111111---
-00000000000---
