*** Life<Cell> 7x4 ***

Generation = 0, Population = 27.
0000
0000
0000
000-
0000
0000
0000

Generation = 1, Population = 13.
-11-
1--1
1---
1-10
1---
1--1
-11-

Generation = 2, Population = 12.
-**-
*---
-00-
--*1
-00-
*---
-**-

Generation = 3, Population = 12.
-*.0
*0--
-1--
-0.*
-1--
*0--
-*.0

*** Life<Cell> 18x6 ***

Generation = 0, Population = 82.
0-0000
000000
0--0--
0-0000
--0-00
000000
00000-
000000
000000
0--000
000-00
0---00
-00-00
0-000-
-000-0
00-000
000-00
0000--

Generation = 1, Population = 56.
10-11-
1-1-1-
--0-0-
1--11-
----11
-1-1--
1---10
1-----
111--1
-00--1
1-1011
10-011
01-01-
--11-0
0-11-1
-1--11
1-----
-111-0

Generation = 2, Population = 55.
-10*-0
*0*0-0
-010-0
-0-**-
00-0-*
----0-
*---*1
--0-0-
-*-00*
0-1---
*--1**
*-01--
--01-0
---*01
-0--0-
0---*-
-0000-
-*-*--

Generation = 3, Population = 56.
--1*-1
*-.1--
-1*101
--0..0
1--1-*
-1--10
.000**
1--0-0
-*-11*
10-0--
*01-*.
.--*--
01-*11
-0-.1-
--1---
-10-*1
---1-0
0*1*--

Generation = 4, Population = 55.
11**--
.-.---
-*.*--
1-1..-
----1*
-*-1-1
*--1..
-0----
1*-*-*
-11101
*1*-*.
.--.11
1--***
-1-.*-
-0*1-1
0*-0*-
1-0*01
1*-*00

*** Life<Cell> 2x12 ***

Generation = 0, Population = 24.
000000000000
000000000000

*** Life<Cell> 9x1 ***

Generation = 0, Population = 9.
0
0
0
0
0
0
0
0
0

Generation = 4, Population = 2.
-
-
-
0
-
0
-
-
-

*** Life<Cell> 19x11 ***

Generation = 0, Population = 111.
0-0------00
000--0--00-
0---0---0--
---0-0-----
00--0-00---
0-0---000--
00-0-0-0-0-
0-000-0-0-0
00---000000
-0-000000-0
00----00-0-
--0000--000
00---0000--
00--000-0--
000-0-00000
--00-00-0--
00---0-0---
--0-00000-0
-0--0000000

Generation = 2, Population = 98.
-------0-0-
--01001---0
*01-0-01-0-
---0--0--0-
0*----00---
0---1----0-
**0-10--0-0
0-***-----*
0-001----0-
100-0*00---
*-0001-00-1
-1*-00-10-*
0----**0-0-
*-----*000-
---1-0*000-
--0*-00-*--
-------*-0-
1-----*001-
1-0--**-*-0

Generation = 4, Population = 113.
10*-1100-0-
-00--0-1-10
.--0-1-.1--
-0000-011*1
0*111-0*--0
--1-.--1-00
*.--.-1-01-
-1...0-0*0*
--*-*-1----
*0-1*.---1-
*0---.1-01.
1..1--1.--*
*-10-*.*1-0
*-01--*0**-
-1-*10.--0*
01*.0000*10
*-1--11*--1
*--00-.--11
*--1-***.10

Generation = 6, Population = 101.
.-.-.*-0---
10-1-0**---
.0---*-..*-
00*0-1-*..-
-*1*100.0-0
0-*-.01**00
.*-1.-1--.-
0-..*01-.-.
--.*.11----
*0*...0-0.*
.0*-1.*--1*
1.*.--**0-*
*-1-0*..1**
.--*0**-..1
-.0.*-.11-.
0..*-0-*..*
.-*-11*.-*1
.10-*-.1*1.
*--*1.**.10

*** Life<Cell> 10x4 ***

Generation = 0, Population = 39.
0000
0000
0000
0-00
0000
0000
0000
0000
0000
0000

Generation = 2, Population = 21.
-**-
*0-*
-*0-
-0**
-*0-
--0-
-00-
-00-
*--*
-**-

*** Life<Cell> 17x7 ***

Generation = 0, Population = 80.
-000-00
-000000
000000-
-00---0
0-0000-
-----0-
0--0000
0000000
0-000-0
0--00-0
0---0-0
0-0-00-
0000000
-00--00
0-00-00
000-000
000--0-

Generation = 4, Population = 59.
00*-*-0
*1-0--*
.-1----
10*----
0------
--1-*--
.00-.1*
**----*
-.--*--
*110.*-
*-0--.*
--.0*0*
1.*0*01
***1-*-
1*.-.*1
*.*0-00
-**---*

*** Life<Cell> 3x20 ***

Generation = 0, Population = 55.
0000000000-000000000
000000000000000-0000
-000000000000000-00-

Generation = 1, Population = 32.
-11111111-0-111-111-
----------1---1-----
--111111111111110---

Generation = 2, Population = 18.
0*------*-1-*---*-*0
-0-----------0---00-
-0*-------*---*-10--

*** Life<Cell> 19x12 ***

Generation = 0, Population = 78.
0-----------
---0-00-0-0-
---000----00
--0--0-0-00-
--0----0----
---------0-0
-0000--0-0--
00-0-0---00-
-------0--0-
-0--00---0-0
000--0-----0
0---000-00-0
0--0--0----0
---------0--
-000-0-00-0-
0------0----
---00-00---0
-0---0-0---0
-0-0-----0-0

Generation = 5, Population = 116.
-0-*1*01-0**
01..-0.--1*1
---*-*--.-.*
--1-1.-101--
-.**101.00-*
1-1-0-*1-.--
101..-..-011
*-1-----.-01
*1-1*-0*.-*-
-..*.*01*-.*
**.1-*1*0..-
1-0--.1-.*0*
1-1*-..-1*--
-00-1.-*0*0-
-*11*---...-
*0.*0*-*-1--
-*-*....0-*.
1*-*-0-*0*-0
---1***01111

*** Life<Cell> 15x10 ***

Generation = 0, Population = 98.
0000000000
--------00
00-0--00-0
-0--000000
00-00----0
00000-000-
-00-00-000
000--000-0
00000-000-
-00-00-000
00--0-0000
000-0000-0
00---0000-
-----00-00
0---00-000

Generation = 5, Population = 64.
10-------0
11-1..1-1.
**-0.-----
-1-*--*.-.
-.*-*---**
--*.*1.1*1
-1-010..*-
-0*11-*.**
-1--1---1-
**1--*11--
-1---00-.-
.-.--*-..-
--1-1*0*0*
1-1--.--.-
1--****--1

*** Life<Cell> 6x12 ***

Generation = 0, Population = 37.
00----0--00-
00-0-0000000
0--000000---
00--0-0---0-
---00-000---
--00---0-0-0

Generation = 1, Population = 34.
--00--1-----
1--10--11111
-00-11-1---0
-100-0-0-0-0
00-----11-00
-01----10---

Generation = 2, Population = 31.
001--0--0000
--0---------
------------
-*1101--0-0-
1100-00*-01-
--*0--0--000

Generation = 3, Population = 40.
1--00-101--1
1-11-0--1111
-0-011--0-0-
-.**-----010
**-10-1*1-*-
0-.-0-1-0-11

Generation = 4, Population = 37.
*0--10*----*
*0**-1--*-*-
---1--011--0
0...010001-1
**0----.-0.0
1-.-1-*11--*

Generation = 5, Population = 38.
*---*1*01--.
*1.*0*0-*-*1
-0-*-1-**--1
1.**1-111---
*.11-0-.11.-
*-.0--.-*-1.

*** Life<Cell> 10x11 ***

Generation = 0, Population = 64.
-0----0-000
000000-0-00
00-00--0000
0-0000-0-00
-0-0-0--0--
-00000--0--
--00000--0-
000---00000
-000--00-0-
-00--0--0--
