*** Life<FredkinCell> 22x50 ***

Generation = 0, Population = 140.
-------0-0------------0-------0--------0----------
------------0------0---------0-------0----0-------
0-------------------------------------------------
00---0----0----0-0----0-------------0---0----0----
--00-0-00----0--0-----------0---------0---0-0-----
-------00-------------0-----0-0--0-----------0----
---0-----------------0---0-----0------0-0---------
-------0---------------0----------0--0----00------
---0----0--0---------0----------------------------
----------------0--0---0--0--0----------0---------
---0--00--0--0------------------------------0-----
--0--------0--------0----0--0-0---------0---------
-----------------------------0-------------0------
--------------------0---0-0---0----0----0---------
---0---000---0---0-0-0------00--000---0---------0-
-0-00-0-------------------------------------0-----
---0------------0--0----0--0-------0-------------0
---------------0--------0--0----0---00---00-0-----
--------0-------------0-0-----0----------0----0---
------0---------0------------0--------0------0----
---00-0-------------0----------0------0-----------
----------0---------0-----0--------------00-------

*** Life<FredkinCell> 16x37 ***

Generation = 0, Population = 144.
0-----00--------0--0-----0--0--000---
--------0---------0-0--------0---0--0
---0--------0--00--0---------0-0-----
0-0-000----0-----00----0--0----0---0-
-0--0--0-------0-0--------------0---0
0-0-0000--00-00---0-0--00------0-0-0-
00--00-00--------0-0--0------0-------
00-0-0-00----------0---0-------00-0--
-0--0--0----0--0----0-----0---000--00
----0------0--------------------0----
0---00------------------0-----00--0-0
00----0----0----------------------0--
-0-------------0-00----0---00-0-0----
-----0-000--------0-----0---0----00--
-------0-0-----0----0-0-0-0-----0----
---0----00-00-----00---0-0--------0--

Generation = 9, Population = 296.
--0-1--3-111-0354-----2-2-48-337-----
3----4322------0-2-0--2--2-2--1-32443
-40--23-2-----1725----130--247----1-1
10--1250-3614--42-13-3---4--10--1--3-
1--423433---5-0-5331-10--52--1---13-1
31--340-3-23---234--323--31114-1-31-6
244--4------4--1--0616-2--3-124--3--1
--0--3-40-0-2---1--302-243322-3--035-
623-27-5311-0411---1---2411-11-5-----
0---21-1----03-02-23-1----2024122221-
32----12--0-1----21--0121--1-4-5-2---
---25-04-2--2---1-4-2---5-0---216-443
21--350--2----3203-54---21----31--4--
2-2-------2-32-222751-2-2--0-0---2242
31022--3240------0-4-024-0--33---2-11
--0----1--33-----22--3-32-0--2-----10

Generation = 18, Population = 298.
6----54418-3-3--7----483-5--3------6-
-0---5-63-2-55-3335--1-5-3234-4------
-83--5--3-0-444+-7-39-65---368-4---53
-222----1--16474--2334--3-1-5-5---443
332+--6-622----4-7-473--59--618-627-8
5--6351-849-8--3565664-57-343-4-64-3-
46-5-6-----4844-55--2+25-262-5---34-5
48-246-----2---3-----434---5467-3----
----49-+-5-0--8-4222--22737--6-77----
-54-424-8--63---7-3-----317-563-5--33
--4--2-7------2--54--313-22-2+---48-4
2-5----8--4--4-----4423-83-14-4-+-666
3542-90-2--9-6--1426---4-----5-612-81
5--1---2-4---63-----4--458234---54-9-
531-93-77--56-4--147-1--21-4---4--2--
2--1------4755---2-9--24---345--13-2-

*** Life<FredkinCell> 49x28 ***

Generation = 0, Population = 100.
-----------------0---0------
-------0------------0-------
---0-------0----------------
----------------0-----------
--------------------------0-
------------------------00--
----------------------------
-----0-----------------0----
-0---------0---------0------
--------0--0----------------
----------0-0---------------
--------------0-------------
----00-----0----------------
---------0---0--------------
------------------0---------
----------------------------
----------------0-----------
-------0-----0----------0---
----0----0------------------
----0-----------------------
------------0---0----0--0---
0-----------------------0---
----------------------------
----------0--0--0-----------
---------------------0-----0
-------0-0------------------
0---0--0------------------0-
----------------------0-----
0-0---0---------------0-----
---0--0---------0-----0-----
---0--0---------------------
-----------------0----------
------0-----------------0---
---------0------0-----------
---0-0----0-----------------
-0------------0-00-----0----
----0-0------0-0------------
------0---------------------
---0-----------0------------
-----0------0---------------
----------------------------
---------0------------------
----0-00--------------------
-----------0----------------
----------------------0-----
-0--0-0----0--------------0-
--------0----0--------------
---------------------------0
----0------0--0-------------

Generation = 15, Population = 696.
0-1-44-0--0--2-101--0----2--
-1--4---03-43--323---1-13-0-
---3----0-342-4-3-2-0----4-4
-121-2-33-24---224-1---3--12
-0--0--6------21356---1---2-
43----11--12-3-2-10-----932-
--3-110-2-7---1----2--22---3
14--2--2--25-----5--1-41-1--
03-332-3--43522--12--1-3--31
----2--602-2-714321--3025-30
40-11--2--422-5--2-04--013-1
-233-64---04520--4631---11-0
1---346--5-54--6---3-54---11
5---242542-3----02-1---30-23
2------2---5-----3-1-21020-2
21211211-4213------1--013001
---------2-544----030--353--
-34244-1653-221---121---5--2
5----1-57-24-223-3-122-14-11
--41-2---2--5-26--5--2-1-22-
1-41-443--3--60-13--44--53--
0-1-2114---1-----3--1-6---5-
1-5222------20---22111-3-2-3
2--14--1----31540---241---3-
----1-2-0--341--4-2--8243-87
11--33-7-32622--4----14-+--1
3452--72----1-13234-0---4--5
-3-21---35---25---0-2-6-4661
-02-13--3312-51-2---2-------
0-324--172--1-2-5452425-3250
3---2-24-1----2---512-----62
121-3-2-11536-415-2-----5---
-02-4-3214--5---4-1-4----14-
--------6--624--3-0--26--330
272-23326-442-373-11-0101011
3-3-------65-3-------30--3--
3-62-45-43--21-13-152--2032-
65-5-21-425--0-3--0--3003-2-
2-241-+-512--7-2-20--31340-1
4144436--9--22-3-3--1--02-3-
---46--4--3-01-134-1-2---1--
02--2-140-----------3213---2
255-465-376-46-323--01-10-2-
315-5--14---23-5-2100--10-0-
-1-450-5--120--50---------4-
33--93-2-68---433--21-241333
6-1----121--5--43-41--3---8-
2----4-----8---1--1--72---33
1-4-5-414314-0-1101-40---0-0

*** Life<FredkinCell> 23x48 ***

Generation = 0, Population = 72.
--00-------0--------0------------------0-----0--
----------------------0-------------------------
--------------------------0---------------------
--0---------------------------------------------
------------------------------------0----0------
---------------------0--000-------------------0-
----------0--0--------------0----0--------------
---------------------0-----------0--------------
---0-----------------------0------------0-------
0---------0---------------------------0---------
----------------------0----0------------0-------
-------------------0----0-------0-----------0---
-------------0------00----0-0--------0-00-------
-------------------0------------------0---------
---------------------0---0--------------0-------
------------------------------0---0-0------0----
-----------------------------0---------0---0----
------------0-----------0-----------------------
-------------0-------0-0----------0-0---0-------
------------0-0-----------------------0---------
---------0-------------------------------------0
---------------------------------0--------------
----------------0-------------0-0---------------

*** Life<FredkinCell> 38x3 ***

Generation = 0, Population = 57.
0--
0-0
-0-
--0
000
-00
00-
-00
-00
-00
0--
-0-
---
000
--0
--0
00-
---
00-
---
-00
--0
-00
-00
000
00-
-00
-00
---
--0
0-0
-00
-0-
00-
0-0
---
---
0-0

Generation = 3, Population = 52.
12-
-0-
0-2
---
31-
---
---
11-
2--
-00
120
--0
202
--1
01-
0--
13-
---
---
-0-
010
12-
00-
0--
000
-1-
-3-
--0
---
2--
-2-
010
0--
1-0
---
---
20-
1-1

Generation = 6, Population = 59.
431
11-
-0-
0-2
4--
3-0
1-1
240
--2
0--
-5-
121
3-5
1-2
12-
1-1
1-2
2-0
-1-
---
-2-
2--
-0-
-23
11-
-12
-61
---
---
-13
---
--3
-11
---
-2-
001
3-2
4-2

Generation = 9, Population = 58.
---
12-
0--
14-
4--
-4-
-22
2-3
--3
10-
46-
-3-
--5
1--
-3-
--2
252
-13
--1
0-2
021
-60
31-
0-4
42-
---
--2
---
-32
-2-
1-1
-34
2-2
41-
2--
1--
-3-
513

Generation = 12, Population = 50.
--3
-5-
---
--4
551
3-2
122
-4-
33-
---
---
--1
30-
---
-41
---
3--
4--
--2
-2-
---
-71
4--
--5
-51
-3-
162
0--
-35
---
2-2
0-7
--5
54-
-50
4--
5-2
-46

Generation = 15, Population = 56.
-43
---
1--
2--
6--
--3
1--
-44
-44
1-2
47-
35-
-35
-15
---
-1-
69-
-37
-1-
--3
--5
4--
5-3
-4-
66-
23-
-7-
-3-
-68
346
-5-
35-
3-8
---
25-
-1-
6-5
67-

*** Life<FredkinCell> 20x15 ***

Generation = 0, Population = 45.
---0-0-0-0-0-0-
----0-----0-0--
----0----------
---------------
---00----------
---------------
-----------0---
----------0----
---------------
0-------0------
-----------00--
-0-----------0-
-----0---0-----
--0---0-0---0--
-------0-------
----00---------
--0-----0-----0
-----0-00-0-00-
--0---0---0---0
-0-0------0----

Generation = 1, Population = 92.
--0-0-----0-0-0
----1--0---0---
---010----0-0--
---0-----------
--0110---------
---00------0---
------------0--
---------0-----
0-------0-0----
-0-----0-0-00--
00------0-011--
0-0--0---0-0--0
-00-0-----0-00-
-0-0---0---0-0-
--0-00------0--
--0011000-----0
-0-00---100-0--
----0-01--1-110
--------00-00--
0-0-0-0--010--0

Generation = 2, Population = 90.
-0--10-0-0-0---
--0---0-0-0-0-0
--0-2100-0-0-0-
----0-----0-0--
-01-210----0---
----------0----
---00----0---0-
0-----------0--
------------0--
010---0------0-
-----0----1--00
1-10--0----10--
---0---0----1--
01--000-0----10
--1-----0-----0
---1-2----0--0-
0-0-1--0----1--
-0--1-1200202-1
0-0-----1------
-------0-----0-

Generation = 3, Population = 129.
0--0210-0-0---0
--10-01------0-
-01---110------
-0-0-0-0-------
012---10--0----
-000-00------0-
0-0110--0-----0
-0-00----0-01--
-00---0----01--
1-10---0--0--1-
-0-00-0--0----1
--2-0------2--0
-0-1-00-----2-0
12--1-1010---2-
0---0-00100--01
0-0-1-0000-0---
-0-02--1-0--2-0
0-002-231------
-0-00-002-00000
0-0---0-----0-0

*** Life<FredkinCell> 3x18 ***

Generation = 0, Population = 18.
-0-----00---00-00-
-0---00----0---0--
-0---0---000----0-

Generation = 1, Population = 31.
010--0-110--11--10
0-0-0-1-00-1-0010-
010-01--01--0----0

Generation = 2, Population = 17.
---0--022-0-2----1
----1--011-------0
-----2-0--0---00--

Generation = 3, Population = 24.
--0--013-0---1--12
-------1220-0-0101
-------1---0-01100

Generation = 4, Population = 22.
-1-001--21--------
--0--0-2-311---2-2
------02-1--01221-

*** Life<FredkinCell> 26x10 ***

Generation = 0, Population = 15.
----------
-----0----
----------
----------
-------0-0
----------
-----0---0
--0-------
----------
----------
----------
-0----0---
----------
----------
----------
----------
----------
----------
----0----0
-00-------
----------
----------
--0------0
----------
-------0--
----------

*** Life<FredkinCell> 13x47 ***

Generation = 0, Population = 95.
-0--------0------------------------0-0---0-----
---------00------0----0--0------0------0-00-0--
-----------00--0-0-0--0------0--------0-00-0-0-
00-0-0-------------0-----0-------0--------0----
0-------00-------0------0---------0--00-----0--
0------------0--0---0--0------0----0-----0---0-
--------------0--0-----------00---0-----------0
--------0------0---------------0--------0------
-------------0--------0---0----00--0-----------
-0-------------------0-------------000---------
-----------------0--0--0---------0-------------
------00-----0--00---0----------0--0----0---0--
------------------------0--0----0-------000--0-

*** Life<FredkinCell> 8x33 ***

Generation = 0, Population = 52.
-0-00-00----0--0-------0---00----
-------------------------0--0----
00-----0--------0------0-----0--0
-0-0--0---0-0------00----0-------
-----0-0-----0-0---------0--0---0
-------00-0-------------0-0---00-
--------00-------0-0--0--0-0--0--
---0----------------------0-----0

Generation = 3, Population = 126.
211---112--------100--00---31-1--
0----020001--0-000-11001-12--0--0
3-2-101----02--0--1--10-----002-0
0-0-2-02----1-1--1--1-12-32-201-0
12-20-0---0-0-012--2----03-------
-1000--0-2-----00002-020---00----
---0011----1--0-0---2202--0-0210-
0----1012-1--0---0-000-00-----0-0

Generation = 6, Population = 134.
22-3202---2-1--0----0---2---40---
-002---3-1--1-00---1-1-2-------21
3-5-21--0--130-3--2-0-3001--0032-
14--3---01-0214-11-21--513---311-
13---1--001031142-031-10-30201---
----122113---0-11-13-1--0--1-121-
2---1412-3-101--100--3------034--
-----11----1-----10130-13-2-001-1

Generation = 9, Population = 123.
--54-1---0-14--1120-00112---5--00
0--3-0-43---10110-0-------4-12---
40602---3-0-3-0---211360---23-6--
--3-6-2-320------4----16-6-24-4--
-3-22222-01-4-2-5--3-3---4-------
-3---25----130-2-02--2-1-------20
-2022-221-0---2-1--2-34--1-1-4---
-101--1--014--00-1----12623---1-2

*** Life<FredkinCell> 35x9 ***

Generation = 0, Population = 88.
-----00-0
------0-0
---------
---00----
-0--0--0-
-------00
0-00--00-
----00---
----00-0-
-0-------
-----0---
0---0-0--
0---0----
00-------
00---0--0
------0-0
---0-0---
0-0------
0----00--
0------0-
--0-0----
---0000--
--00-0000
--------0
-0-------
0--0-000-
---0-0--0
------0--
--0--0-0-
0--0-0000
--0------
--0----00
---0-----
-0--0---0
-0-----0-

*** Life<FredkinCell> 10x10 ***

Generation = 0, Population = 42.
0---000-0-
--------00
0-000--00-
----0---0-
---0--00-0
0-0--0-0-0
-0-----0-0
0--0---0-0
0-00---000
0---0-00-0

Generation = 1, Population = 49.
-0-01-1-1-
--00-00-11
--1--0011-
0-0010001-
0-----1-01
-0--0-0---
0--0-00---
1--10-0-0-
--1----1-1
100---1-01

Generation = 2, Population = 54.
0-0-202-2-
----0-1022
00-0-1-22-
1----1-12-
1-00---0-2
0-0--0-000
1-01-1100-
20--1010--
--2-0-0--2
2--0-0-01-

Generation = 3, Population = 45.
-------03-
-00-1--1-3
-1--02033-
--0-12-2--
---10-1--3
---001011-
-0-2022---
-10--1---0
---01-11--
-0--0-112-

Generation = 4, Population = 50.
-00-2-2-4-
0-1-2-----
021013--4-
---02--3-0
----1-20--
-001-2--2-
110-1---00
2-1112100-
---1-0---2
2-0-1--231

Generation = 5, Population = 46.
-1--3----0
1--0--1---
--21-40---
10--3--42-
-001203--3
--12----3-
-21-222-11
31-223---0
--22-1--03
---0--13--
